Week 3: Regression modelling part 2
…
How do they compare with the teaching score values from the parallel regression lines model?

Answer

Here, we can see that, although the intercept for male instructors may be lower, the associated average decrease in teaching score with age (0.004) is not as severe as it is for female instructors (0.018).

1.4 Assessing model fit

Now we have to assess the fit of the model by looking at plots of the residuals. We shall do this for the interaction model. First, we need to obtain the fitted values and residuals from the interaction model as follows:

Code
regression.points <- get_regression_points(int.model)

# A tibble: 463 × 6
      ID score   age gender score_hat residual
   <int> <dbl> <int> <fct>      <dbl>    <dbl>
 1     1   4.7    36 female      4.25    0.448
 2     2   4.1    36 female      4.25   -0.152
 3     3   3.9    36 female      4.25   -0.352
 4     4   4.8    36 female      4.25    0.548
 5     5   4.6    59 male        4.20    0.399
 6     6   4.3    59 male        4.20    0.099
 7     7   2.8    59 male        4.20   -1.40 
 8     8   4.1    51 male        4.23   -0.133
 9     9   3.4    51 male        4.23   -0.833
10    10   4.5    40 female      4.18    0.318
# ℹ 453 more rows
…
