Data Analysis Week 1 - Week 1: Visualising and data tidying using R
…
With the weather data set, write code to produce the mean and standard deviation temperature for each day in 2013 for NYC.

Take a hint

See the documentation for summarize() (?summarize)

Click here to see the solution

Code
 weather %>%
  summarize(mean = mean(temp, na.rm = TRUE),
            std_dev = sd(temp, na.rm = TRUE),
            .by = day)

# A tibble: 31 × 3
     day  mean std_dev
   <int> <dbl>   <dbl>
 1     1  57.6    17.4
 2     2  55.7    20.2
 3     3  53.8    18.9
 4     4  54.0    18.8
 5     5  55.6    16.2
 6     6  55.7    15.6
 7     7  55.6    17.4
 8     8  55.0    17.6
 9     9  56.6    17.4
10    10  56.9    17.8
# ℹ 21 more rows

6.8 Grouping by more than one variable

You are not limited to grouping by one variable. Say you wanted to know the number of flights leaving each of the three New York City airports for each month, we can also group by a second variable month:

Code
by_origin_monthly <- flights %>%
  summarize(count = n(),
            .by = c(origin, month))
by_origin_monthly

# A tibble: 36 × 3
   origin month count
   <chr>  <int> <int>
 1 EWR        1  9893
 2 LGA        1  7950
 3 JFK        1  9161
 4 EWR       10 10104
 5 JFK       10  9143
 6 LGA       10  9642
 7 JFK       11  8710
 8 EWR       11  9707
 9 LGA       11  8851
10 JFK       12  9146
# ℹ 26 more rows
…
Click here to see the solution

Code
weather %>%
  mutate(
    extreme_weather  = case_when(
      is.na(temp)|is.na(wind_speed) ~ NA,
      temp < 40 & wind_speed  > 64~ "extreme",
      .default = "not extreme"
    )
  ) %>%
  relocate(extreme_weather,temp,wind_speed) |>
  arrange(desc(wind_speed))

# A tibble: 26,115 × 16
   extreme_weather  temp wind_speed origin  year month   day  hour  dewp humid
   <chr>           <dbl>      <dbl> <chr>  <int> <int> <int> <int> <dbl> <dbl>
 1 extreme          39.0     1048.  EWR     2013     2    12     3 27.0   61.6
 2 not extreme      57.2       42.6 EWR     2013     1    31     6 53.6   87.7
 3 not extreme      53.6       42.6 JFK     2013     1    31     4 53.1  100  
 4 not extreme      60.8       40.3 EWR     2013     1    31     4 59     93.8
 5 not extreme      59         40.3 LGA     2013     1    31     4 55.4   93.7
 6 not extreme      46.0       39.1 EWR     2013     1    31     8 30.0   53.3
 7 not extreme      41         38.0 JFK     2013     3     6    14 28.9   61.9
 8 not extreme      53.1       36.8 JFK     2013     1    31     3 52.0  100  
 9 not extreme      51.8       36.8 JFK     2013     1    31     7 46.4   81.7
10 not extreme      28.0       36.8 JFK     2013    11    24    10 -0.04  29.2
# ℹ 26,105 more rows
# ℹ 6 more variables: wind_dir <dbl>, wind_gust <dbl>, precip <dbl>,
#   pressure <dbl>, visib <dbl>, time_hour <dttm>
…
8.3 Joining by multiple “key” variables

Say instead we are in a situation where we need to join by multiple variables. For example, in the first figure in this section we see that in order to join the flights and weather data frames, we need more than one key variable: year, month, day, hour, and origin. This is because the combination of these 5 variables act to uniquely identify each observational unit in the weather data frame: hourly weather recordings at each of the 3 NYC airports.

We achieve this by specifying a vector of key variables to join by.

Code
flights_weather_joined <- flights  %>%
  inner_join(weather,
             by = join_by(year,month,day,hour,origin))

flights_weather_joined

# A tibble: 335,220 × 32
    year month   day dep_time sched_dep_time dep_delay arr_time sched_arr_time
   <int> <int> <int>    <int>          <int>     <dbl>    <int>          <int>
 1  2013     1     1      517            515         2      830            819
 2  2013     1     1      533            529         4      850            830
 3  2013     1     1      542            540         2      923            850
 4  2013     1     1      544            545        -1     1004           1022
 5  2013     1     1      554            600        -6      812            837
 6  2013     1     1      554            558        -4      740            728
 7  2013     1     1      555            600        -5      913            854
 8  2013     1     1      557            600        -3      709            723
 9  2013     1     1      557            600        -3      838            846
10  2013     1     1      558            600        -2      753            745
# ℹ 335,210 more rows
# ℹ 24 more variables: arr_delay <dbl>, carrier <chr>, flight <int>,
#   tailnum <chr>, origin <chr>, dest <chr>, air_time <dbl>, distance <dbl>,
#   hour <dbl>, minute <dbl>, time_hour.x <dttm>, gain <dbl>, hours <dbl>,
#   gain_per_hour <dbl>, temp <dbl>, dewp <dbl>, humid <dbl>, wind_dir <dbl>,
#   wind_speed <dbl>, wind_gust <dbl>, precip <dbl>, pressure <dbl>,
#   visib <dbl>, time_hour.y <dttm>
…
