Week 2: Tidying and Wrangling data using R
…
The first line is often, but not always, a header row indicating the names of the columns/variables.

An Excel .xlsx file. This format is based on Microsoft’s proprietary Excel software. As opposed to bare-bones .csv files, .xlsx Excel files contain a lot of metadata, i.e. data about the data. Examples include the use of bold and italic fonts, colored cells, different column widths, and formula macros etc.

We’ll cover two methods for importing data in R: one using the R console and the other using RStudio’s graphical interface.

5.1 Method 1: From the console

First, let’s download a Comma Separated Values (CSV) file of ratings of the level of democracy in different countries spanning 1952 to 1992: https://moderndive.com/data/dem_score.csv. We use the read_csv() function from the readr package to read it off the web:

Code
dem_score <- read_csv("https://moderndive.com/data/dem_score.csv")

# A tibble: 96 × 10
   country    `1952` `1957` `1962` `1967` `1972` `1977` `1982` `1987` `1992`
   <chr>       <dbl>  <dbl>  <dbl>  <dbl>  <dbl>  <dbl>  <dbl>  <dbl>  <dbl>
 1 Albania        -9     -9     -9     -9     -9     -9     -9     -9      5
 2 Argentina      -9     -1     -1     -9     -9     -9     -8      8      7
 3 Armenia        -9     -7     -7     -7     -7     -7     -7     -7      7
 4 Australia      10     10     10     10     10     10     10     10     10
 5 Austria        10     10     10     10     10     10     10     10     10
 6 Azerbaijan     -9     -7     -7     -7     -7     -7     -7     -7      1
 7 Belarus        -9     -7     -7     -7     -7     -7     -7     -7      7
 8 Belgium        10     10     10     10     10     10     10     10     10
 9 Bhutan        -10    -10    -10    -10    -10    -10    -10    -10    -10
10 Bolivia        -4     -3     -3     -4     -7     -7      8      9      9
# ℹ 86 more rows
…
Code
conflict_prefer("filter", "dplyr")

[conflicted] Will prefer dplyr::filter over any other package.

We begin by focusing only on flights from New York City to Portland, Oregon. The dest code (or airport code) for Portland, Oregon is PDX. Run the following code and look at the resulting spreadsheet to ensure that only flights heading to Portland are chosen:

Code
portland_flights <- flights |> 
  filter(dest == "PDX")
# We do not display columns 6-11 so we can see the destination (dest) variable.
portland_flights[,-(6:12)] 

# A tibble: 1,354 × 12
    year month   day dep_time sched_dep_time origin dest  air_time distance
   <int> <int> <int>    <int>          <int> <chr>  <chr>    <dbl>    <dbl>
 1  2013     1     1     1739           1740 JFK    PDX        341     2454
 2  2013     1     1     1805           1757 EWR    PDX        336     2434
 3  2013     1     1     2052           2029 JFK    PDX        331     2454
 4  2013     1     2      804            805 EWR    PDX        310     2434
 5  2013     1     2     1552           1550 JFK    PDX        305     2454
 6  2013     1     2     1727           1720 EWR    PDX        351     2434
 7  2013     1     2     1738           1740 JFK    PDX        322     2454
 8  2013     1     2     2024           2029 JFK    PDX        325     2454
 9  2013     1     3     1755           1745 JFK    PDX        325     2454
10  2013     1     3     1814           1727 EWR    PDX        320     2434
# ℹ 1,344 more rows
# ℹ 3 more variables: hour <dbl>, minute <dbl>, time_hour <dttm>
…
>= corresponds to greater than or equal to

<= corresponds to less than or equal to

!= corresponds to not equal to

To see many of these in action, let’s select all flights that left JFK airport heading to Burlington, Vermont (BTV) or Seattle, Washington (SEA) in the months of October, November, or December. Run the following

Code
btv_sea_flights_fall <- flights |> 
  filter(origin == "JFK", (dest == "BTV" | dest == "SEA"), month >= 10)
btv_sea_flights_fall[,-(6:12)]

# A tibble: 815 × 12
    year month   day dep_time sched_dep_time origin dest  air_time distance
   <int> <int> <int>    <int>          <int> <chr>  <chr>    <dbl>    <dbl>
 1  2013    10     1      729            735 JFK    SEA        352     2422
 2  2013    10     1      853            900 JFK    SEA        362     2422
 3  2013    10     1      916            925 JFK    BTV         48      266
 4  2013    10     1     1216           1221 JFK    BTV         49      266
 5  2013    10     1     1452           1459 JFK    BTV         46      266
 6  2013    10     1     1459           1500 JFK    SEA        348     2422
 7  2013    10     1     1754           1800 JFK    SEA        338     2422
 8  2013    10     1     1825           1830 JFK    SEA        366     2422
 9  2013    10     1     1925           1930 JFK    SEA        332     2422
10  2013    10     1     2238           2245 JFK    BTV         48      266
# ℹ 805 more rows
# ℹ 3 more variables: hour <dbl>, minute <dbl>, time_hour <dttm>

Note

Even though colloquially speaking one might say “all flights leaving Burlington, Vermont and Seattle, Washington,” in terms of computer logical operations, we really mean “all flights leaving Burlington, Vermont or Seattle, Washington.” For a given row in the data, dest can be BTV, SEA, or something else, but not BTV and SEA at the same time.

Another example uses ! to pick rows that do not match a condition. The ! can be read as not. Here, we are selecting rows corresponding to flights that did not go to Burlington, VT or Seattle, WA.

Code
not_BTV_SEA <- flights |> 
  filter(!(dest == "BTV" | dest == "SEA"))
not_BTV_SEA[,-(6:12)]

# A tibble: 330,264 × 12
    year month   day dep_time sched_dep_time origin dest  air_time distance
   <int> <int> <int>    <int>          <int> <chr>  <chr>    <dbl>    <dbl>
 1  2013     1     1      517            515 EWR    IAH        227     1400
 2  2013     1     1      533            529 LGA    IAH        227     1416
 3  2013     1     1      542            540 JFK    MIA        160     1089
 4  2013     1     1      544            545 JFK    BQN        183     1576
 5  2013     1     1      554            600 LGA    ATL        116      762
 6  2013     1     1      554            558 EWR    ORD        150      719
 7  2013     1     1      555            600 EWR    FLL        158     1065
 8  2013     1     1      557            600 LGA    IAD         53      229
 9  2013     1     1      557            600 JFK    MCO        140      944
10  2013     1     1      558            600 LGA    ORD        138      733
# ℹ 330,254 more rows
# ℹ 3 more variables: hour <dbl>, minute <dbl>, time_hour <dttm>
…
We see that Newark (EWR) had the most flights departing in 2013 followed by JFK and lastly by LaGuardia (LGA). Note, there is a subtle but important difference between sum and n. While sum simply adds up a large set of numbers, the latter counts the number of times each of many different values occur.

10.1 Grouping by more than one variable

You are not limited to grouping by one variable. Say you wanted to know the number of flights leaving each of the three New York City airports for each month, we can also group by a second variable month:

Code
by_origin_monthly <- flights |> 
  summarize(count = n(), 
            .by = c(origin, month))
by_origin_monthly

# A tibble: 36 × 3
   origin month count
   <chr>  <int> <int>
 1 EWR        1  9893
 2 LGA        1  7950
 3 JFK        1  9161
 4 EWR       10 10104
 5 JFK       10  9143
 6 LGA       10  9642
 7 JFK       11  8710
 8 EWR       11  9707
 9 LGA       11  8851
10 JFK       12  9146
# ℹ 26 more rows

We see there are 36 rows for by_origin_monthly because there are 12 months times 3 airports (EWR, JFK, and LGA). Let’s now pose a question.

First, what if we reverse the order of the grouping, i.e. .by = c(month, origin)?

Code
by_monthly_origin <- flights |> 
  summarize(count = n(), 
            .by = c(month,origin))
by_monthly_origin

# A tibble: 36 × 3
   month origin count
   <int> <chr>  <int>
 1     1 EWR     9893
 2     1 LGA     7950
 3     1 JFK     9161
 4    10 EWR    10104
 5    10 JFK     9143
 6    10 LGA     9642
 7    11 JFK     8710
 8    11 EWR     9707
 9    11 LGA     8851
10    12 JFK     9146
# ℹ 26 more rows
…
Write code to produce the mean and standard deviation temperature for each day in 2013 for NYC

Take a hint

See the documentation for plot() (?plot)

Click here to see the solution

Code
 weather |> 
  summarize(mean = mean(temp, na.rm = TRUE), 
            std_dev = sd(temp, na.rm = TRUE),
            .by = day)

# A tibble: 31 × 3
     day  mean std_dev
   <int> <dbl>   <dbl>
 1     1  57.6    17.4
 2     2  55.7    20.2
 3     3  53.8    18.9
 4     4  54.0    18.8
 5     5  55.6    16.2
 6     6  55.7    15.6
 7     7  55.6    17.4
 8     8  55.0    17.6
 9     9  56.6    17.4
10    10  56.9    17.8
# ℹ 21 more rows
…
When looking at the flights data set, there are some clear additional variables that could be calculated based on the values of variables already in the data set. Passengers are often frustrated when their flights depart late, but change their mood a bit if pilots can make up some time during the flight to get them to their destination close to when they expected to land. This is commonly referred to as “gain” and we will create this variable using the mutate function. Note that we will be overwriting the flights data frame with one including the additional variable gain here, or put differently, the mutate command outputs a new data frame which then gets saved over the original flights data frame.

Code
flights <- flights |> 
  mutate(gain = dep_delay - arr_delay)

Let’s take a look at dep_delay, arr_delay, and the resulting gain variables in our new flights data frame:

# A tibble: 336,776 × 3
   dep_delay arr_delay  gain
       <dbl>     <dbl> <dbl>
 1         2        11    -9
 2         4        20   -16
 3         2        33   -31
 4        -1       -18    17
 5        -6       -25    19
 6        -4        12   -16
 7        -5        19   -24
 8        -3       -14    11
 9        -3        -8     5
10        -2         8   -10
# ℹ 336,766 more rows
…
The differences are due to departure and arrival times have a HHMM or HMM format. E.g., if we compute the difference between a flight scheduled to arrive by 923 and its actual arrival time at 850, the result would be a difference of 73, while in reality there was only a 33 min difference if we consider the correct time format!

12 Reorder the data frame using arrange

One of the most common things people working with data would like to do is sort the data frames by a specific variable in a column. Have you ever been asked to calculate a median by hand? This requires you to put the data in order from smallest to highest in value. The dplyr package has a function called arrange that we will use to sort/reorder our data according to the values of the specified variable. This is often used after we have grouped and summarized the data as we will see.

Let’s suppose we were interested in determining the most frequent destination airports from New York City in 2013:

Code
freq_dest <- flights |> 
  summarize(num_flights = n(),
            .by = dest)

# A tibble: 105 × 2
   dest  num_flights
   <chr>       <int>
 1 IAH          7198
 2 MIA         11728
 3 BQN           896
 4 ATL         17215
 5 ORD         17283
 6 FLL         12055
 7 IAD          5700
 8 MCO         14082
 9 PBI          6554
10 TPA          7466
# ℹ 95 more rows

You’ll see that by default the values of dest are displayed in alphabetical order here. We are interested in finding those airports that appear most:

Code
freq_dest |>
  arrange(num_flights)

# A tibble: 105 × 2
   dest  num_flights
   <chr>       <int>
 1 LEX             1
 2 LGA             1
 3 ANC             8
 4 SBN            10
 5 HDN            15
 6 MTJ            15
 7 EYW            17
 8 PSP            19
 9 JAC            25
10 BZN            36
# ℹ 95 more rows

This is actually giving us the opposite of what we are looking for. It tells us the least frequent destination airports first. To switch the ordering to be descending instead of ascending we use the desc (descending) function:

Code
freq_dest |> 
  arrange(desc(num_flights))

# A tibble: 105 × 2
   dest  num_flights
   <chr>       <int>
 1 ORD         17283
 2 ATL         17215
 3 LAX         16174
 4 BOS         15508
 5 MCO         14082
 6 CLT         14064
 7 SFO         13331
 8 FLL         12055
 9 MIA         11728
10 DCA          9705
# ℹ 95 more rows
…
Data relationships in nycflights13 from R for Data Science, Hadley and Garrett (2016).

13.1 Joining by “key” variables

In both flights and airlines, the key variable we want to join/merge/match the two data frames with has the same name in both data sets: carriers. We make use of the inner_join function to join by the variable carrier.

Code
flights_joined <- flights |> 
  inner_join(airlines, 
             by = join_by(carrier))
             
flights

# A tibble: 336,776 × 22
    year month   day dep_time sched_dep_time dep_delay arr_time sched_arr_time
   <int> <int> <int>    <int>          <int>     <dbl>    <int>          <int>
 1  2013     1     1      517            515         2      830            819
 2  2013     1     1      533            529         4      850            830
 3  2013     1     1      542            540         2      923            850
 4  2013     1     1      544            545        -1     1004           1022
 5  2013     1     1      554            600        -6      812            837
 6  2013     1     1      554            558        -4      740            728
 7  2013     1     1      555            600        -5      913            854
 8  2013     1     1      557            600        -3      709            723
 9  2013     1     1      557            600        -3      838            846
10  2013     1     1      558            600        -2      753            745
# ℹ 336,766 more rows
# ℹ 14 more variables: arr_delay <dbl>, carrier <chr>, flight <int>,
#   tailnum <chr>, origin <chr>, dest <chr>, air_time <dbl>, distance <dbl>,
#   hour <dbl>, minute <dbl>, time_hour <dttm>, gain <dbl>, hours <dbl>,
#   gain_per_hour <dbl>

Code
flights_joined

# A tibble: 336,776 × 23
    year month   day dep_time sched_dep_time dep_delay arr_time sched_arr_time
   <int> <int> <int>    <int>          <int>     <dbl>    <int>          <int>
 1  2013     1     1      517            515         2      830            819
 2  2013     1     1      533            529         4      850            830
 3  2013     1     1      542            540         2      923            850
 4  2013     1     1      544            545        -1     1004           1022
 5  2013     1     1      554            600        -6      812            837
 6  2013     1     1      554            558        -4      740            728
 7  2013     1     1      555            600        -5      913            854
 8  2013     1     1      557            600        -3      709            723
 9  2013     1     1      557            600        -3      838            846
10  2013     1     1      558            600        -2      753            745
# ℹ 336,766 more rows
# ℹ 15 more variables: arr_delay <dbl>, carrier <chr>, flight <int>,
#   tailnum <chr>, origin <chr>, dest <chr>, air_time <dbl>, distance <dbl>,
#   hour <dbl>, minute <dbl>, time_hour <dttm>, gain <dbl>, hours <dbl>,
#   gain_per_hour <dbl>, name <chr>
…
Say instead, you are interested in all the destinations of flights from NYC in 2013 and ask yourself:

“What cities are these airports in?”

“Is ORD Orlando?”

“Where is FLL?”

The airports data frame contains airport codes:

Code
airports

# A tibble: 1,458 × 8
   faa   name                             lat    lon   alt    tz dst   tzone    
   <chr> <chr>                          <dbl>  <dbl> <dbl> <dbl> <chr> <chr>    
 1 04G   Lansdowne Airport               41.1  -80.6  1044    -5 A     America/…
 2 06A   Moton Field Municipal Airport   32.5  -85.7   264    -6 A     America/…
 3 06C   Schaumburg Regional             42.0  -88.1   801    -6 A     America/…
 4 06N   Randall Airport                 41.4  -74.4   523    -5 A     America/…
 5 09J   Jekyll Island Airport           31.1  -81.4    11    -5 A     America/…
 6 0A9   Elizabethton Municipal Airport  36.4  -82.2  1593    -5 A     America/…
 7 0G6   Williams County Airport         41.5  -84.5   730    -5 A     America/…
 8 0G7   Finger Lakes Regional Airport   42.9  -76.8   492    -5 A     America/…
 9 0P2   Shoestring Aviation Airfield    39.8  -76.6  1000    -5 U     America/…
10 0S9   Jefferson County Intl           48.1 -123.    108    -8 A     America/…
# ℹ 1,448 more rows
…
We can read the code out loud as:

Let’s construct the sequence of commands that computes the number of flights from NYC to each destination, but also includes information about each destination airport:

Code
named_dests <- flights|>
  summarize(num_flights = n(),
            .by = dest) |>
  arrange(desc(num_flights)) |>
  inner_join(airports, by = join_by(dest == faa)) %>%
  rename(airport_name = name)

# A tibble: 101 × 9
   dest  num_flights airport_name             lat    lon   alt    tz dst   tzone
   <chr>       <int> <chr>                  <dbl>  <dbl> <dbl> <dbl> <chr> <chr>
 1 ORD         17283 Chicago Ohare Intl      42.0  -87.9   668    -6 A     Amer…
 2 ATL         17215 Hartsfield Jackson At…  33.6  -84.4  1026    -5 A     Amer…
 3 LAX         16174 Los Angeles Intl        33.9 -118.    126    -8 A     Amer…
 4 BOS         15508 General Edward Lawren…  42.4  -71.0    19    -5 A     Amer…
 5 MCO         14082 Orlando Intl            28.4  -81.3    96    -5 A     Amer…
 6 CLT         14064 Charlotte Douglas Intl  35.2  -80.9   748    -5 A     Amer…
 7 SFO         13331 San Francisco Intl      37.6 -122.     13    -8 A     Amer…
 8 FLL         12055 Fort Lauderdale Holly…  26.1  -80.2     9    -5 A     Amer…
 9 MIA         11728 Miami Intl              25.8  -80.3     8    -5 A     Amer…
10 DCA          9705 Ronald Reagan Washing…  38.9  -77.0    15    -5 A     Amer…
# ℹ 91 more rows
…
