Data Analysis Week 1 - Extra material
…
[1] "20H 11M 0S"

# Example 6:  string input with date-time D/M/Y H:M:S
ymd_hms("2017-01-31 20:11:59")

[1] "2017-01-31 20:11:59 UTC"

In this session, instead of creating data-time variables by ourselves, we will focus on already existing Date/Time Data. Let’s look at some of the date-time variables in the flights data set, namely the scheduled departure dates and times:

Output

R-Code

# A tibble: 336,776 × 5
    year month   day  hour minute
   <int> <int> <int> <dbl>  <dbl>
 1  2013     1     1     5     15
 2  2013     1     1     5     29
 3  2013     1     1     5     40
 4  2013     1     1     5     45
 5  2013     1     1     6      0
 6  2013     1     1     5     58
 7  2013     1     1     6      0
 8  2013     1     1     6      0
 9  2013     1     1     6      0
10  2013     1     1     6      0
# ℹ 336,766 more rows

flights_dep <- flights %>%
  select(year, month, day, hour, minute)
flights_dep

Instead of having separate date-time variables spread across different columns, we can use the make_date() or make_datetime()functions to create new date and date-time variables respectively:

flights_dep <- flights_dep %>%
    mutate(departure_time = make_datetime(year, month, day, hour, minute),
           departure_date = make_date(year, month, day))
flights_dep

# A tibble: 336,776 × 7
    year month   day  hour minute departure_time      departure_date
   <int> <int> <int> <dbl>  <dbl> <dttm>              <date>        
 1  2013     1     1     5     15 2013-01-01 05:15:00 2013-01-01    
 2  2013     1     1     5     29 2013-01-01 05:29:00 2013-01-01    
 3  2013     1     1     5     40 2013-01-01 05:40:00 2013-01-01    
 4  2013     1     1     5     45 2013-01-01 05:45:00 2013-01-01    
 5  2013     1     1     6      0 2013-01-01 06:00:00 2013-01-01    
 6  2013     1     1     5     58 2013-01-01 05:58:00 2013-01-01    
 7  2013     1     1     6      0 2013-01-01 06:00:00 2013-01-01    
 8  2013     1     1     6      0 2013-01-01 06:00:00 2013-01-01    
 9  2013     1     1     6      0 2013-01-01 06:00:00 2013-01-01    
10  2013     1     1     6      0 2013-01-01 06:00:00 2013-01-01    
# ℹ 336,766 more rows
…
