Week 2: Regression modelling part 1 – Data Analysis Week 2
…
where

the red circle is the observed (true) score (\(y=4.9\)) of the instructor;

the red square is the fitted value (\(\widehat{y} = 4.369\)) from the regression line; and

the blue arrow is the distance between the observed and fitted values, that is, the residual.

To obtain the fitted values and residuals for all instructors within the data set we can use the get_regression_points function:

Code
regression.points <- get_regression_points(model$fit)
regression.points

# A tibble: 463 × 5
      ID score bty_avg score_hat residual
   <int> <dbl>   <dbl>     <dbl>    <dbl>
 1     1   4.7    5         4.21    0.486
 2     2   4.1    5         4.21   -0.114
 3     3   3.9    5         4.21   -0.314
 4     4   4.8    5         4.21    0.586
 5     5   4.6    3         4.08    0.52 
 6     6   4.3    3         4.08    0.22 
 7     7   2.8    3         4.08   -1.28 
 8     8   4.1    3.33      4.10   -0.002
 9     9   3.4    3.33      4.10   -0.702
10    10   4.5    3.17      4.09    0.409
# ℹ 453 more rows
…
Essentially, the estimates for each continent are known as offsets relative to the baseline category (Africa in this case). For example, the mean life expectancy for Africa is simply equal to the intercept term \(\widehat{\alpha} = 54.8\). However, the mean life expectancy for Asia is:

\[\widehat{\alpha} + \widehat{\beta}_{\mbox{Asia}} \cdot \mathbb{I}_{\mbox{Asia}}(x) = 54.8 + 15.9 \cdot 1 = 70.7 \]

If we just look at a \(\widehat{\beta}_{\mbox{continent}}\) on their own, then we would interpret these coefficients in relative terms with respect to the baseline category. E.g., looking at \(\widehat{\beta}_{\mbox{Asia}}=15.9\) , we would say that the life expectancy in Asia is on average 15.9 years greater than in Africa.

4.3 Assessing model fit

What do the fitted values \(\widehat{y}\) and the residuals \(y - \widehat{y}\) correspond to when we are dealing with a categorical explanatory variable? Let’s explore the gapminder2007 data set in order to understand how they work.

# A tibble: 142 × 3
   country     continent lifeExp
   <fct>       <fct>       <dbl>
 1 Afghanistan Asia         43.8
 2 Albania     Europe       76.4
 3 Algeria     Africa       72.3
 4 Angola      Africa       42.7
 5 Argentina   Americas     75.3
 6 Australia   Oceania      81.2
 7 Austria     Europe       79.8
 8 Bahrain     Asia         75.6
 9 Bangladesh  Asia         64.1
10 Belgium     Europe       79.4
# ℹ 132 more rows

Here, we see the life expectancy of each country and the continent they are from. For example, let’s remember the life expectancies of Afghanistan (43.8) and Bahrain (75.6). Now, we can obtain the fitted values and residuals in the same way we did previously:

Code
regression_points <- get_regression_points(lifeExp.model$fit)

# A tibble: 142 × 5
      ID lifeExp continent lifeExp_hat residual
   <int>   <dbl> <fct>           <dbl>    <dbl>
 1     1    43.8 Asia             70.7  -26.9  
 2     2    76.4 Europe           77.6   -1.23 
 3     3    72.3 Africa           54.8   17.5  
 4     4    42.7 Africa           54.8  -12.1  
 5     5    75.3 Americas         73.6    1.71 
 6     6    81.2 Oceania          80.7    0.516
 7     7    79.8 Europe           77.6    2.18 
 8     8    75.6 Asia             70.7    4.91 
 9     9    64.1 Asia             70.7   -6.67 
10    10    79.4 Europe           77.6    1.79 
# ℹ 132 more rows
…
